﻿d.197,sex,age,"status (tumor 1, no tumor 0)",fold_change
tg,M,299,0,1.394744
tg,M,115,1,0.615572
tg,M,147,0,1
tg,M,54,1,1.071773
tg,M,164,0,0.406126
tg,M,198,1,0.707107
tg,M,219,0,0.812252
tg,M,293,0,0.70711
tg,M,143,0,0.66
tg,M,143,0,0.62
tg,M,178,1,0.933033
tg,F,101,0,0.757858
tg,F,122,0,1.148698
tg,F,111,1,0.933033
tg,F,25,1,3.732132
tg,F,134,1,1
tg,F,139,0,0.435275
tg,F,140,1,1.148698
tg,F,57,1,2
tg,F,50,1,1.624505
tg,F,166,1,1.741101
tg,F,146,1,0.812252
tg,F,68,1,1.414214
tg,F,162,0,0.933033
tg,F,190,0,0.870551
tg,F,197,1,0.933033
tg,F,176,1,0.757858
tg,F,99,1,1.515717
tg,F,211,1,1
tg,F,121,1,0.757858
tg,F,129,1,0.659754
tg,F,136,1,0.870551
tg,F,79,1,1.866066
tg,F,91,1,1.741101
tg,F,96,1,1.866066
tg,F,74,1,1.231144
tg,F,107,1,2.143547
tg,F,85,1,1.515717
tg,F,98,1,1.414214
tg,F,112,1,1.319508
tg,F,124,1,0.615572
tg,F,69,0,2.143547
tg,F,86,1,2.462289
tg,F,88,1,1.32
tg,F,145,1,0.76
tg,F,151,1,0.812252
tg,F,283,1,0.535887